[gd_scene load_steps=3 format=2]

[ext_resource path="res://scripts/parents/character.gd" type="Script" id=1]

[sub_resource type="CapsuleShape2D" id=1]
radius = 6.60415
height = 4.74426

[node name="character" type="KinematicBody2D"]
script = ExtResource( 1 )

[node name="sprite" type="Sprite" parent="."]
hframes = 24

[node name="collision" type="CollisionShape2D" parent="."]
shape = SubResource( 1 )

[node name="animation" type="AnimationPlayer" parent="."]
