[gd_scene load_steps=4 format=2]

[ext_resource path="res://assets/sprites/DinoSprites - doux.png" type="Texture" id=1]
[ext_resource path="res://scenes/parents/character.tscn" type="PackedScene" id=2]
[ext_resource path="res://scripts/player.gd" type="Script" id=3]

[node name="player" instance=ExtResource( 2 )]
script = ExtResource( 3 )

[node name="sprite" parent="." index="0"]
texture = ExtResource( 1 )
