[gd_scene load_steps=3 format=2]

[ext_resource path="res://scenes/parents/nongame_scene.tscn" type="PackedScene" id=1]
[ext_resource path="res://scripts/menu.gd" type="Script" id=2]

[node name="menu" instance=ExtResource( 1 )]
script = ExtResource( 2 )
scene_name = "Get Richer"

[node name="bg_music" type="AudioStreamPlayer" parent="." index="2"]
